[ {
  "depCode" : "PROTOSS",
  "depJob" : "CARRIER",
  "description" : "Capital ship fighting with pilotless interceptors"
}, {
  "depCode" : "PROTOSS",
  "depJob" : "SCOUT",
  "description" : "Light tactical ship for sudden strikes"
}, {
  "depCode" : "PROTOSS",
  "depJob" : "ARBITER",
  "description" : "Medium ship providing invisibility to the fleet and tactical advantage"
}, {
  "depCode" : "TERRAN",
  "depJob" : "BATTLECRUISER",
  "description" : "Capital ship with heavy lasers and main bean weapon"
}, {
  "depCode" : "TERRAN",
  "depJob" : "WRAITH",
  "description" : "Light tactical ship with cloaking capabilities"
}, {
  "depCode" : "TERRAN",
  "depJob" : "DROPSHIP",
  "description" : "General purpose dropship"
}, {
  "depCode" : "ZERG",
  "depJob" : "MUTALISK",
  "description" : "Light tactical unit for sudden strikes"
}, {
  "depCode" : "ZERG",
  "depJob" : "GUARDIAN",
  "description" : "Air-to-Surface unit"
}, {
  "depCode" : "ZERG",
  "depJob" : "OVERLORD",
  "description" : "Control providing ship with sensors and dropship capabilities"
} ]